{
	"process_id" : 21897,
	"version" : "2020.3.0f1",
	"app_path" : "/Applications/Unity/Hub/Editor/2020.3.0f1/Unity.app",
	"app_contents_path" : "/Applications/Unity/Hub/Editor/2020.3.0f1/Unity.app/Contents"
}